^C:\USERS\LIPA\SOURCE\REPOS\LINKEDQUEUE\LINKEDQUEUE\STDAFX.CPP
C:\USERS\LIPA\SOURCE\REPOS\LINKEDQUEUE\LINKEDQUEUE\DEBUG\LINKEDQUEUE.PCH
C:\USERS\LIPA\SOURCE\REPOS\LINKEDQUEUE\LINKEDQUEUE\DEBUG\VC141.PDB
C:\USERS\LIPA\SOURCE\REPOS\LINKEDQUEUE\LINKEDQUEUE\DEBUG\VC141.IDB
C:\USERS\LIPA\SOURCE\REPOS\LINKEDQUEUE\LINKEDQUEUE\DEBUG\STDAFX.OBJ
^C:\USERS\LIPA\SOURCE\REPOS\LINKEDQUEUE\LINKEDQUEUE\LINKEDQUEUE.CPP
C:\USERS\LIPA\SOURCE\REPOS\LINKEDQUEUE\LINKEDQUEUE\DEBUG\VC141.PDB
C:\USERS\LIPA\SOURCE\REPOS\LINKEDQUEUE\LINKEDQUEUE\DEBUG\VC141.IDB
C:\USERS\LIPA\SOURCE\REPOS\LINKEDQUEUE\LINKEDQUEUE\DEBUG\LINKEDQUEUE.OBJ
